…
    ## Parsed with column specification:
    ## cols(
    ##   id = col_character(),
    ##   `Geographic Area Name` = col_character(),
    ##   `Estimate!!Total` = col_double(),
    ##   `Margin of Error!!Total` = col_character()
    ## )

``` r
df_pop
```

    ## # A tibble: 3,220 x 5
    ##    id          `Geographic Area Nam~ `Estimate!!Tota~ `Margin of Error!!T~ fips 
    ##    <chr>       <chr>                            <dbl> <chr>                <chr>
    ##  1 0500000US0~ Autauga County, Alab~            55200 *****                01001
    ##  2 0500000US0~ Baldwin County, Alab~           208107 *****                01003
    ##  3 0500000US0~ Barbour County, Alab~            25782 *****                01005
    ##  4 0500000US0~ Bibb County, Alabama             22527 *****                01007
    ##  5 0500000US0~ Blount County, Alaba~            57645 *****                01009
    ##  6 0500000US0~ Bullock County, Alab~            10352 *****                01011
    ##  7 0500000US0~ Butler County, Alaba~            20025 *****                01013
    ##  8 0500000US0~ Calhoun County, Alab~           115098 *****                01015
    ##  9 0500000US0~ Chambers County, Ala~            33826 *****                01017
    ## 10 0500000US0~ Cherokee County, Ala~            25853 *****                01019
    ## # ... with 3,210 more rows
…
``` r
df_covid
```

    ## # A tibble: 3,243 x 10
    ##    date       county state fips  cases deaths confirmed_cases confirmed_deaths
    ##    <date>     <chr>  <chr> <chr> <dbl>  <dbl>           <dbl>            <dbl>
    ##  1 2020-10-26 Autau~ Alab~ 01001  2074     31            1845               29
    ##  2 2020-10-26 Baldw~ Alab~ 01003  6694     69            5663               65
    ##  3 2020-10-26 Barbo~ Alab~ 01005  1033      9             731                9
    ##  4 2020-10-26 Bibb   Alab~ 01007   843     14             773               10
    ##  5 2020-10-26 Blount Alab~ 01009  1942     25            1507               25
    ##  6 2020-10-26 Bullo~ Alab~ 01011   649     17             611               14
    ##  7 2020-10-26 Butler Alab~ 01013  1013     40             965               39
    ##  8 2020-10-26 Calho~ Alab~ 01015  4621     61            3885               53
    ##  9 2020-10-26 Chamb~ Alab~ 01017  1352     44             951               41
    ## 10 2020-10-26 Chero~ Alab~ 01019   745     14             553               12
    ## # ... with 3,233 more rows, and 2 more variables: probable_cases <dbl>,
    ## #   probable_deaths <dbl>
…
``` r
df_airquality2020
```

    ## # A tibble: 627 x 19
    ##    State County  Year `Days with AQI` `Good Days` `Moderate Days`
    ##    <chr> <chr>  <dbl>           <dbl>       <dbl>           <dbl>
    ##  1 Alab~ Baldw~  2020              11          11               0
    ##  2 Alab~ Clay    2020               5           5               0
    ##  3 Alab~ DeKalb  2020              59          59               0
    ##  4 Alab~ Etowah  2020               8           8               0
    ##  5 Alab~ Jeffe~  2020              32          26               6
    ##  6 Alab~ Mobile  2020              30          27               3
    ##  7 Alab~ Montg~  2020              29          21               8
    ##  8 Alab~ Morgan  2020              31          31               0
    ##  9 Alab~ Russe~  2020              31          28               3
    ## 10 Alab~ Shelby  2020              31          28               3
    ## # ... with 617 more rows, and 13 more variables: `Unhealthy for Sensitive
    ## #   Groups Days` <dbl>, `Unhealthy Days` <dbl>, `Very Unhealthy Days` <dbl>,
    ## #   `Hazardous Days` <dbl>, `Max AQI` <dbl>, `90th Percentile AQI` <dbl>,
    ## #   `Median AQI` <dbl>, `Days CO` <dbl>, `Days NO2` <dbl>, `Days Ozone` <dbl>,
    ## #   `Days SO2` <dbl>, `Days PM2.5` <dbl>, `Days PM10` <dbl>
…
    ## Parsed with column specification:
    ## cols(
    ##   fips = col_double(),
    ##   year = col_double(),
    ##   pm25 = col_double()
    ## )

``` r
df_pm25
```

    ## # A tibble: 53,497 x 3
    ##     fips  year  pm25
    ##    <dbl> <dbl> <dbl>
    ##  1 36103  2000 13.7 
    ##  2 36103  2001 13.7 
    ##  3 36103  2002 12.5 
    ##  4 36103  2003 12.4 
    ##  5 36103  2004 11.7 
    ##  6 36103  2005 12.5 
    ##  7 36103  2006 11.0 
    ##  8 36103  2007 11.7 
    ##  9 36103  2008 10.8 
    ## 10 36103  2009  9.20
    ## # ... with 53,487 more rows
…
df_covid_air_mean_pop #This is the joined version of COVID-19 and 10 year mean EPA data
```

    ## # A tibble: 3,220 x 10
    ##    date       County State fips  cases deaths population Avg_aqi deaths_per_100k
    ##    <date>     <chr>  <chr> <chr> <dbl>  <dbl>      <dbl>   <dbl>           <dbl>
    ##  1 2020-10-26 Baldw~ Alab~ 01003  6694     69     208107    37.8            33.2
    ##  2 2020-10-26 Clay   Alab~ 01027   749     12      13378    33.3            89.7
    ##  3 2020-10-26 Colbe~ Alab~ 01033  2041     32      54495    39.1            58.7
    ##  4 2020-10-26 DeKalb Alab~ 01049  3461     29      71200    38.6            40.7
    ##  5 2020-10-26 Elmore Alab~ 01051  3227     53      81212    37.9            65.3
    ##  6 2020-10-26 Etowah Alab~ 01055  4312     51     102939    43.7            49.5
    ##  7 2020-10-26 Houst~ Alab~ 01069  4180     34     104352    37.7            32.6
    ##  8 2020-10-26 Jeffe~ Alab~ 01073 23443    377     659892    53.2            57.1
    ##  9 2020-10-26 Lawre~ Alab~ 01079   861     32      33171    27.2            96.5
    ## 10 2020-10-26 Madis~ Alab~ 01089  9394     96     357560    41              26.8
    ## # ... with 3,210 more rows, and 1 more variable: cases_per_100k <dbl>
…
  df_covid %>% 
  full_join(df_pop, by = "fips") %>% 
  select(
  date,
  County,
  State,
  fips,
  cases,
  deaths,
  population = `Estimate!!Total`
  )
df_data
```

    ## # A tibble: 3,253 x 7
    ##    date       County   State   fips  cases deaths population
    ##    <date>     <chr>    <chr>   <chr> <dbl>  <dbl>      <dbl>
    ##  1 2020-10-26 Autauga  Alabama 01001  2074     31      55200
    ##  2 2020-10-26 Baldwin  Alabama 01003  6694     69     208107
    ##  3 2020-10-26 Barbour  Alabama 01005  1033      9      25782
    ##  4 2020-10-26 Bibb     Alabama 01007   843     14      22527
    ##  5 2020-10-26 Blount   Alabama 01009  1942     25      57645
    ##  6 2020-10-26 Bullock  Alabama 01011   649     17      10352
    ##  7 2020-10-26 Butler   Alabama 01013  1013     40      20025
    ##  8 2020-10-26 Calhoun  Alabama 01015  4621     61     115098
    ##  9 2020-10-26 Chambers Alabama 01017  1352     44      33826
    ## 10 2020-10-26 Cherokee Alabama 01019   745     14      25853
    ## # ... with 3,243 more rows
…
# Add "0" to zip codes that are missing it
  mutate(fips = ifelse(nchar(fips) == 4, paste("0", fips, sep = ""), fips)) %>% 
  mutate(fips = as.character(fips)) %>% 
  
# Join with NYT data
  full_join(df_data, by = "fips")
```

    ## `summarise()` ungrouping output (override with `.groups` argument)

``` r
df_pm
```

    ## # A tibble: 3,254 x 8
    ##    fips  mean_pm25 date       County   State   cases deaths population
    ##    <chr>     <dbl> <date>     <chr>    <chr>   <dbl>  <dbl>      <dbl>
    ##  1 01001      11.7 2020-10-26 Autauga  Alabama  2074     31      55200
    ##  2 01003      10.1 2020-10-26 Baldwin  Alabama  6694     69     208107
    ##  3 01005      11.0 2020-10-26 Barbour  Alabama  1033      9      25782
    ##  4 01007      12.0 2020-10-26 Bibb     Alabama   843     14      22527
    ##  5 01009      11.8 2020-10-26 Blount   Alabama  1942     25      57645
    ##  6 01011      11.3 2020-10-26 Bullock  Alabama   649     17      10352
    ##  7 01013      10.8 2020-10-26 Butler   Alabama  1013     40      20025
    ##  8 01015      12.3 2020-10-26 Calhoun  Alabama  4621     61     115098
    ##  9 01017      11.4 2020-10-26 Chambers Alabama  1352     44      33826
    ## 10 01019      12.2 2020-10-26 Cherokee Alabama   745     14      25853
    ## # ... with 3,244 more rows

``` r
df_pm_norm <-
  df_pm %>% 
  mutate(deaths_per_100k = deaths * 100000 / population) %>%
  mutate(cases_per_100k = cases * 100000 / population)
df_pm_norm
```

    ## # A tibble: 3,254 x 10
    ##    fips  mean_pm25 date       County State cases deaths population
    ##    <chr>     <dbl> <date>     <chr>  <chr> <dbl>  <dbl>      <dbl>
    ##  1 01001      11.7 2020-10-26 Autau~ Alab~  2074     31      55200
    ##  2 01003      10.1 2020-10-26 Baldw~ Alab~  6694     69     208107
    ##  3 01005      11.0 2020-10-26 Barbo~ Alab~  1033      9      25782
    ##  4 01007      12.0 2020-10-26 Bibb   Alab~   843     14      22527
    ##  5 01009      11.8 2020-10-26 Blount Alab~  1942     25      57645
    ##  6 01011      11.3 2020-10-26 Bullo~ Alab~   649     17      10352
    ##  7 01013      10.8 2020-10-26 Butler Alab~  1013     40      20025
    ##  8 01015      12.3 2020-10-26 Calho~ Alab~  4621     61     115098
    ##  9 01017      11.4 2020-10-26 Chamb~ Alab~  1352     44      33826
    ## 10 01019      12.2 2020-10-26 Chero~ Alab~   745     14      25853
    ## # ... with 3,244 more rows, and 2 more variables: deaths_per_100k <dbl>,
    ## #   cases_per_100k <dbl>
…
